%YAML 1.1
%TAG !u! tag:unity3d.com,2011:
--- !u!74 &7400000
AnimationClip:
  m_ObjectHideFlags: 0
  m_PrefabParentObject: {fileID: 0}
  m_PrefabInternal: {fileID: 0}
  m_Name: Jump
  serializedVersion: 4
  m_AnimationType: 2
  m_Compressed: 0
  m_UseHighQualityCurve: 1
  m_RotationCurves: []
  m_CompressedRotationCurves: []
  m_PositionCurves: []
  m_ScaleCurves:
  - curve:
      serializedVersion: 2
      m_Curve:
      - time: .0250000004
        value: {x: 1, y: 1, z: 1}
        inSlope: {x: -4.0714283, y: 4.28571606, z: 0}
        outSlope: {x: -4.0714283, y: 4.28571606, z: 0}
        tangentMode: 0
      - time: .0833333358
        value: {x: .762499988, y: 1.25000012, z: 1}
        inSlope: {x: -2.03571415, y: 2.14285803, z: 0}
        outSlope: {x: -2.03571415, y: 2.14285803, z: 0}
        tangentMode: 1919252833
      - time: .108333334
        value: {x: .762499988, y: 1.25000012, z: 1}
        inSlope: {x: 2.15769243, y: -1.80000043, z: 0}
        outSlope: {x: 2.15769243, y: -1.80000043, z: 0}
        tangentMode: 0
      - time: .216666669
        value: {x: 1.23000002, y: .860000014, z: 1}
        inSlope: {x: 2.15769243, y: -1.80000043, z: 0}
        outSlope: {x: 2.15769243, y: -1.80000043, z: 0}
        tangentMode: 15
      - time: .233333334
        value: {x: 1.23000002, y: .860000014, z: 1}
        inSlope: {x: -1.25454569, y: .76363641, z: 0}
        outSlope: {x: -1.25454569, y: .76363641, z: 0}
        tangentMode: 113792004
      - time: .324999988
        value: {x: 1, y: 1, z: 1}
        inSlope: {x: -2.50909138, y: 1.52727282, z: 0}
        outSlope: {x: -2.50909138, y: 1.52727282, z: 0}
        tangentMode: 0
      m_PreInfinity: 2
      m_PostInfinity: 2
    path: BodySprite
  - curve:
      serializedVersion: 2
      m_Curve:
      - time: 0
        value: {x: 1, y: 1, z: 1}
        inSlope: {x: 12.7380037, y: 15.2442255, z: 3.96000051}
        outSlope: {x: 12.7380037, y: 15.2442255, z: 3.96000051}
        tangentMode: 1692205092
      - time: .0833333358
        value: {x: 2.06150031, y: 2.27035213, z: 1.33000004}
        inSlope: {x: 6.36900187, y: 7.62211275, z: 1.98000026}
        outSlope: {x: 6.36900187, y: 7.62211275, z: 1.98000026}
        tangentMode: 7170414
      - time: .108333334
        value: {x: 2.06150031, y: 2.27035213, z: 1.33000004}
        inSlope: {x: -5.97988844, y: -7.78331804, z: -2.6037333}
        outSlope: {x: -5.97988844, y: -7.78331804, z: -2.6037333}
        tangentMode: 1634560366
      - time: .216666669
        value: {x: .765857816, y: .583966434, z: .765857816}
        inSlope: {x: -5.97988844, y: -7.78331804, z: -2.6037333}
        outSlope: {x: -5.97988844, y: -7.78331804, z: -2.6037333}
        tangentMode: 53
      - time: .233333334
        value: {x: .765857816, y: .583966434, z: .765857816}
        inSlope: {x: 1.27713943, y: 2.26927423, z: 1.27713943}
        outSlope: {x: 1.27713943, y: 2.26927423, z: 1.27713943}
        tangentMode: 0
      - time: .324999988
        value: {x: 1, y: 1, z: 1}
        inSlope: {x: 2.55427885, y: 4.53854847, z: 2.55427885}
        outSlope: {x: 2.55427885, y: 4.53854847, z: 2.55427885}
        tangentMode: 0
      m_PreInfinity: 2
      m_PostInfinity: 2
    path: JetpackSprite
  m_FloatCurves: []
  m_PPtrCurves: []
  m_SampleRate: 120
  m_WrapMode: 0
  m_Bounds:
    m_Center: {x: 0, y: 0, z: 0}
    m_Extent: {x: 0, y: 0, z: 0}
  m_AnimationClipSettings:
    serializedVersion: 2
    m_StartTime: 0
    m_StopTime: .324999988
    m_OrientationOffsetY: 0
    m_Level: 0
    m_CycleOffset: 0
    m_LoopTime: 1
    m_LoopBlend: 0
    m_LoopBlendOrientation: 0
    m_LoopBlendPositionY: 0
    m_LoopBlendPositionXZ: 0
    m_KeepOriginalOrientation: 0
    m_KeepOriginalPositionY: 1
    m_KeepOriginalPositionXZ: 0
    m_HeightFromFeet: 0
    m_Mirror: 0
  m_EditorCurves:
  - curve:
      serializedVersion: 2
      m_Curve:
      - time: .0250000004
        value: 1
        inSlope: -4.0714283
        outSlope: -4.0714283
        tangentMode: 10
      - time: .0833333358
        value: .762499988
        inSlope: -2.03571415
        outSlope: -2.03571415
        tangentMode: 10
      - time: .108333334
        value: .762499988
        inSlope: 2.15769243
        outSlope: 2.15769243
        tangentMode: 10
      - time: .216666669
        value: 1.23000002
        inSlope: 2.15769243
        outSlope: 2.15769243
        tangentMode: 10
      - time: .233333334
        value: 1.23000002
        inSlope: -1.25454569
        outSlope: -1.25454569
        tangentMode: 10
      - time: .324999988
        value: 1
        inSlope: -2.50909138
        outSlope: -2.50909138
        tangentMode: 10
      m_PreInfinity: 2
      m_PostInfinity: 2
    attribute: m_LocalScale.x
    path: BodySprite
    classID: 4
    script: {fileID: 0}
  - curve:
      serializedVersion: 2
      m_Curve:
      - time: .0250000004
        value: 1
        inSlope: 4.28571606
        outSlope: 4.28571606
        tangentMode: 10
      - time: .0833333358
        value: 1.25000012
        inSlope: 2.14285803
        outSlope: 2.14285803
        tangentMode: 10
      - time: .108333334
        value: 1.25000012
        inSlope: -1.80000043
        outSlope: -1.80000043
        tangentMode: 10
      - time: .216666669
        value: .860000014
        inSlope: -1.80000043
        outSlope: -1.80000043
        tangentMode: 10
      - time: .233333334
        value: .860000014
        inSlope: .76363641
        outSlope: .76363641
        tangentMode: 10
      - time: .324999988
        value: 1
        inSlope: 1.52727282
        outSlope: 1.52727282
        tangentMode: 10
      m_PreInfinity: 2
      m_PostInfinity: 2
    attribute: m_LocalScale.y
    path: BodySprite
    classID: 4
    script: {fileID: 0}
  - curve:
      serializedVersion: 2
      m_Curve:
      - time: .0250000004
        value: 1
        inSlope: 0
        outSlope: 0
        tangentMode: 10
      - time: .0833333358
        value: 1
        inSlope: 0
        outSlope: 0
        tangentMode: 10
      - time: .108333334
        value: 1
        inSlope: 0
        outSlope: 0
        tangentMode: 10
      - time: .216666669
        value: 1
        inSlope: 0
        outSlope: 0
        tangentMode: 10
      - time: .233333334
        value: 1
        inSlope: 0
        outSlope: 0
        tangentMode: 10
      - time: .324999988
        value: 1
        inSlope: 0
        outSlope: 0
        tangentMode: 10
      m_PreInfinity: 2
      m_PostInfinity: 2
    attribute: m_LocalScale.z
    path: BodySprite
    classID: 4
    script: {fileID: 0}
  - curve:
      serializedVersion: 2
      m_Curve:
      - time: 0
        value: 1
        inSlope: 12.7380037
        outSlope: 12.7380037
        tangentMode: 10
      - time: .0833333358
        value: 2.06150031
        inSlope: 6.36900187
        outSlope: 6.36900187
        tangentMode: 10
      - time: .108333334
        value: 2.06150031
        inSlope: -5.97988844
        outSlope: -5.97988844
        tangentMode: 10
      - time: .216666669
        value: .765857816
        inSlope: -5.97988844
        outSlope: -5.97988844
        tangentMode: 10
      - time: .233333334
        value: .765857816
        inSlope: 1.27713943
        outSlope: 1.27713943
        tangentMode: 10
      - time: .324999988
        value: 1
        inSlope: 2.55427885
        outSlope: 2.55427885
        tangentMode: 10
      m_PreInfinity: 2
      m_PostInfinity: 2
    attribute: m_LocalScale.x
    path: JetpackSprite
    classID: 4
    script: {fileID: 0}
  - curve:
      serializedVersion: 2
      m_Curve:
      - time: 0
        value: 1
        inSlope: 15.2442255
        outSlope: 15.2442255
        tangentMode: 10
      - time: .0833333358
        value: 2.27035213
        inSlope: 7.62211275
        outSlope: 7.62211275
        tangentMode: 10
      - time: .108333334
        value: 2.27035213
        inSlope: -7.78331804
        outSlope: -7.78331804
        tangentMode: 10
      - time: .216666669
        value: .583966434
        inSlope: -7.78331804
        outSlope: -7.78331804
        tangentMode: 10
      - time: .233333334
        value: .583966434
        inSlope: 2.26927423
        outSlope: 2.26927423
        tangentMode: 10
      - time: .324999988
        value: 1
        inSlope: 4.53854847
        outSlope: 4.53854847
        tangentMode: 10
      m_PreInfinity: 2
      m_PostInfinity: 2
    attribute: m_LocalScale.y
    path: JetpackSprite
    classID: 4
    script: {fileID: 0}
  - curve:
      serializedVersion: 2
      m_Curve:
      - time: 0
        value: 1
        inSlope: 3.96000051
        outSlope: 3.96000051
        tangentMode: 10
      - time: .0833333358
        value: 1.33000004
        inSlope: 1.98000026
        outSlope: 1.98000026
        tangentMode: 10
      - time: .108333334
        value: 1.33000004
        inSlope: -2.6037333
        outSlope: -2.6037333
        tangentMode: 10
      - time: .216666669
        value: .765857816
        inSlope: -2.6037333
        outSlope: -2.6037333
        tangentMode: 10
      - time: .233333334
        value: .765857816
        inSlope: 1.27713943
        outSlope: 1.27713943
        tangentMode: 10
      - time: .324999988
        value: 1
        inSlope: 2.55427885
        outSlope: 2.55427885
        tangentMode: 10
      m_PreInfinity: 2
      m_PostInfinity: 2
    attribute: m_LocalScale.z
    path: JetpackSprite
    classID: 4
    script: {fileID: 0}
  m_EulerEditorCurves: []
  m_Events: []
